<?xml version="1.0" encoding="UTF-8" standalone="no"?><svg xmlns="http://www.w3.org/2000/svg" xmlns:xlink="http://www.w3.org/1999/xlink" contentScriptType="application/ecmascript" contentStyleType="text/css" height="1509px" preserveAspectRatio="none" style="width:3201px;height:1509px;background:#FFFFFF;" version="1.1" viewBox="0 0 3201 1509" width="3201px" zoomAndPan="magnify"><defs><filter height="300%" id="f1n5vyi7h4d5wr" width="300%" x="-1" y="-1"><feGaussianBlur result="blurOut" stdDeviation="2.0"/><feColorMatrix in="blurOut" result="blurOut2" type="matrix" values="0 0 0 0 0 0 0 0 0 0 0 0 0 0 0 0 0 0 .4 0"/><feOffset dx="4.0" dy="4.0" in="blurOut2" result="blurOut3"/><feBlend in="SourceGraphic" in2="blurOut3" mode="normal"/></filter></defs><g><!--MD5=[f7217341b3bb6bbf768c7f0e049f8d09]
cluster Legend--><rect fill="#FFFFFF" filter="url(#f1n5vyi7h4d5wr)" height="395.5" style="stroke:#000000;stroke-width:1.5;" width="585" x="2604" y="7"/><text fill="#000000" font-family="sans-serif" font-size="14" font-weight="bold" lengthAdjust="spacing" textLength="51" x="2871" y="22.5352">Legend</text><!--MD5=[4ae7f64e305522eab5ef9f6b9899451a]
cluster Notification Services--><path d="M2684.8658,748.7789 C2687.4631,742.2278 2693.0012,742.3658 2697.1145,747.1392 C2701.1131,741.527 2706.4527,740.8444 2710.2577,747.3493 C2712.9131,741.6108 2719.3492,740.2177 2723.2894,745.8809 C2726.7566,740.1397 2732.2205,741.1606 2734.5253,747.0079 C2738.1461,739.5397 2742.3961,739.4736 2747.6949,745.3523 C2751.3211,739.8924 2756.5531,740.2506 2759.6783,745.893 C2763.1001,740.5046 2767.0927,739.7665 2771.5445,744.7102 C2775.7443,740.0477 2781.7206,740.8192 2783.833,747.0622 C2788.1794,741.8233 2792.1533,740.5964 2796.4481,747.1176 C2800.4687,740.6118 2805.848,741.0176 2808.8976,748.013 C2813.0791,742.5592 2816.6313,742.7753 2820.6091,748.2316 C2824.9148,741.6485 2829.1009,741.8552 2833.6368,747.9959 C2840.5625,751.2217 2842.9755,757.5679 2835.934,762.9407 C2842.7888,766.1134 2842.8449,770.912 2837.9036,775.8802 C2844.0969,779.4812 2844.3674,784.7819 2839.239,789.4934 C2844.6089,793.674 2844.6023,799.0237 2838.1109,802.147 C2844.6426,808.3797 2843.8232,813.3699 2835.4394,816.9022 C2841.4987,821.1816 2840.3984,825.0289 2834.9832,828.8709 C2831.2866,834.9883 2827.4015,835.1461 2822.2983,830.5339 C2818.9524,836.6396 2813.4868,837.1031 2808.8032,832.1693 C2806.2115,837.6027 2800.8206,838.3617 2796.9053,833.7345 C2793.7323,840.3966 2790.0224,840.8262 2785.1764,835.3514 C2781.1894,842.2242 2776.551,842.0561 2771.5688,836.4354 C2768.7089,842.2793 2763.4634,842.7823 2760.2416,836.7814 C2756.7822,841.4417 2750.722,842.369 2748.0615,835.9066 C2743.4653,841.5786 2738.2268,841.7045 2734.5416,834.918 C2730.5643,839.8028 2725.2508,839.8068 2722.911,833.2529 C2717.6415,838.7302 2713.5719,838.9839 2709.8801,831.6483 C2705.3666,838.3043 2701.1026,837.4044 2697.1765,831.0737 C2692.6221,837.3877 2686.5923,835.322 2684.0357,828.9967 C2677.6352,826.2795 2677.2371,821.6878 2681.4535,816.7349 C2673.3424,812.5371 2673.9403,807.8039 2680.3708,802.5001 C2672.1598,800.5112 2671.1754,796.0197 2676.2538,789.7422 C2670.7863,784.7947 2670.9344,778.15 2678.8354,775.6518 C2674.0817,769.9973 2674.5041,763.5701 2682.8096,761.6125 C2676.9308,756.668 2679.0043,751.8424 2684.8658,748.7789 " fill="#FFFFFF" filter="url(#f1n5vyi7h4d5wr)" style="stroke:#000000;stroke-width:1.5;"/><text fill="#000000" font-family="sans-serif" font-size="14" font-weight="bold" lengthAdjust="spacing" textLength="149" x="2684" y="766.0352">Notification Services</text><!--MD5=[4a84140dceb589485cde63e6ff6bce47]
cluster Storage server (optional)--><rect fill="#FFFFFF" filter="url(#f1n5vyi7h4d5wr)" height="376" style="stroke:#000000;stroke-width:1.5;" width="270" x="2157" y="686"/><path d="M2345,686 L2345,695.4883 L2335,705.4883 L2157,705.4883 " fill="none" style="stroke:#000000;stroke-width:1.5;"/><text fill="#000000" font-family="sans-serif" font-size="14" font-weight="bold" lengthAdjust="spacing" textLength="178" x="2160" y="700.5352">Storage server (optional)</text><!--MD5=[ff4beff0e4db6becb3f40a29f5a213c0]
cluster High Power Server--><rect fill="#FFFFFF" filter="url(#f1n5vyi7h4d5wr)" height="1272" style="stroke:#000000;stroke-width:1.5;" width="1614" x="283" y="225"/><path d="M425,225 L425,234.4883 L415,244.4883 L283,244.4883 " fill="none" style="stroke:#000000;stroke-width:1.5;"/><text fill="#000000" font-family="sans-serif" font-size="14" font-weight="bold" lengthAdjust="spacing" textLength="132" x="286" y="239.5352">High Power Server</text><!--MD5=[9b31964f34df72b299a45244470add23]
cluster ProteomicsService--><rect fill="#FFFFFF" filter="url(#f1n5vyi7h4d5wr)" height="369" style="stroke:#000000;stroke-width:1.5;" width="421" x="1452" y="268"/><text fill="#000000" font-family="sans-serif" font-size="14" font-weight="bold" lengthAdjust="spacing" textLength="131" x="1597" y="283.5352">ProteomicsService</text><!--MD5=[431ed816e699232e2026a810e3721cbf]
cluster Nextflow Docker--><rect fill="#FFFFFF" filter="url(#f1n5vyi7h4d5wr)" height="355" style="stroke:#000000;stroke-width:1.5;" width="1566" x="307" y="1118"/><text fill="#000000" font-family="sans-serif" font-size="14" font-weight="bold" lengthAdjust="spacing" textLength="120" x="1030" y="1133.5352">Nextflow Docker</text><!--MD5=[a77ac56f4ce9e3c5c04ee0c241b8b9b5]
cluster Frontend Server--><rect fill="#FFFFFF" filter="url(#f1n5vyi7h4d5wr)" height="597" style="stroke:#000000;stroke-width:1.5;" width="252" x="7" y="268"/><path d="M130,268 L130,277.4883 L120,287.4883 L7,287.4883 " fill="none" style="stroke:#000000;stroke-width:1.5;"/><text fill="#000000" font-family="sans-serif" font-size="14" font-weight="bold" lengthAdjust="spacing" textLength="113" x="10" y="282.5352">Frontend Server</text><!--MD5=[9eb86c2b3d925a16ba1bdada40016c70]
entity Internet--><path d="M2636.6552,50.9112 C2641.4312,44.5191 2648.4411,44.1407 2651.9094,52.2837 C2655.706,45.1886 2662.7369,43.0488 2667.609,51.1744 C2672.0711,43.2174 2677.4761,43.1583 2683.1114,49.9407 C2687.7499,42.1015 2695.1392,43.4077 2698.414,51.2698 C2701.3094,42.5434 2708.7214,42.5899 2714.2915,48.3352 C2720.0825,42.7136 2725.5883,43.7684 2729.5433,50.5863 C2733.6815,44.8733 2739.5485,43.9942 2743.528,50.764 C2747.5676,43.0944 2755.1302,42.7523 2759.3017,50.6302 C2764.9029,42.3489 2769.7969,43.4245 2774.9525,51.0682 C2779.8141,43.8791 2785.5238,45.6008 2789.5262,51.9903 C2794.8177,43.882 2799.9462,43.9996 2806.1449,50.992 C2815.6523,43.081 2822.1654,46.1638 2826,57 C2827.2458,56.5374 2828.0789,57.1747 2828.1108,58.4632 C2836.1913,62.6477 2835.3422,69.4156 2828.6,74.0648 C2836.3371,77.3283 2836.7228,82.0346 2831.5446,88.0227 C2839.5669,92.3879 2840.0302,97.1527 2833.2324,103.1694 C2839.3418,108.3345 2839.2012,113.7855 2831.9472,117.7747 C2837.669,124.5408 2838.3087,130.2037 2829.0377,134.3359 C2836.7608,145.1242 2830.8733,153.4366 2819,154.4414 C2819.5755,153.8423 2820.2102,153.7265 2820.5873,154.6485 C2815.9866,162.1557 2809.6634,162.0518 2804.1835,155.6884 C2799.8724,163.7128 2794.9743,165.1355 2788.8273,157.4874 C2785.2191,165.0517 2778.6357,163.8205 2774.516,158.0357 C2770.5684,165.4862 2765.8095,165.64 2759.7139,160.5766 C2754.5247,167.0843 2749.866,168.0162 2744.5428,160.7241 C2739.4183,169.4014 2732.2143,168.7595 2727.6919,160.1376 C2723.9842,166.7939 2718.0293,167.9266 2712.8897,161.7951 C2705.7935,168.6544 2700.1177,168.3511 2696.3932,158.472 C2691.4038,165.1026 2686.2164,165.4318 2681.6366,158.0409 C2676.3863,163.7884 2671.3851,164.1678 2667.4244,156.6585 C2662.3619,162.7864 2656.0073,163.5213 2651.7459,155.7544 C2640.5565,165.9521 2631.2951,159.7937 2628,147.4414 C2629.0523,147.3483 2629.369,147.9103 2628.9896,148.8343 C2620.8037,145.4009 2620.2793,138.4076 2627.7315,133.6762 C2620.0159,130.9181 2620.2037,124.1734 2626.2634,119.9428 C2620.0923,115.0759 2619.1479,107.1168 2627.7741,103.6194 C2621.5926,99.5877 2620.5807,94.4251 2626.993,89.6874 C2620.8428,83.5109 2621.4085,78.7397 2629.1488,74.5402 C2619.1103,64.4882 2620.7511,54.2611 2635,50 C2635.8416,49.5639 2636.6101,49.9006 2636.6552,50.9112 " fill="#FEFECE" filter="url(#f1n5vyi7h4d5wr)" style="stroke:#000000;stroke-width:1.5;"/><text fill="#000000" font-family="sans-serif" font-size="14" lengthAdjust="spacing" textLength="54" x="2635" y="70.5352">Internet</text><line style="stroke:#000000;stroke-width:1.0;" x1="2621" x2="2833" y1="73.4883" y2="73.4883"/><text fill="#000000" font-family="sans-serif" font-size="14" lengthAdjust="spacing" textLength="175" x="2635" y="91.0234">This software runs on the</text><text fill="#000000" font-family="sans-serif" font-size="14" lengthAdjust="spacing" textLength="184" x="2635" y="107.5117">internet and is provided by</text><text fill="#000000" font-family="sans-serif" font-size="14" lengthAdjust="spacing" textLength="182" x="2635" y="124">a 3rd party. These services</text><text fill="#000000" font-family="sans-serif" font-size="14" lengthAdjust="spacing" textLength="179" x="2635" y="140.4883">are not under our control.</text><!--MD5=[72219edfb6f70a96a7a2b94474d04a6f]
entity InternalServer--><rect fill="#FEFECE" filter="url(#f1n5vyi7h4d5wr)" height="87.4648" style="stroke:#000000;stroke-width:1.5;" width="221" x="2869.5" y="58.5"/><path d="M2943.1667,58.5 L2943.1667,63.5 L2936.1667,70.5 L2869.5,70.5 " fill="none" style="stroke:#000000;stroke-width:1.5;"/><text fill="#000000" font-family="sans-serif" font-size="14" lengthAdjust="spacing" textLength="100" x="2884.5" y="92.0352">Internal Server</text><line style="stroke:#000000;stroke-width:1.0;" x1="2870.5" x2="3089.5" y1="94.9883" y2="94.9883"/><text fill="#000000" font-family="sans-serif" font-size="14" lengthAdjust="spacing" textLength="181" x="2884.5" y="112.5234">Shows a server with all the</text><text fill="#000000" font-family="sans-serif" font-size="14" lengthAdjust="spacing" textLength="117" x="2884.5" y="129.0117">running services.</text><!--MD5=[aa9590aded7922f1f97871b066948052]
entity Person--><ellipse cx="3149" cy="71" fill="#FEFECE" filter="url(#f1n5vyi7h4d5wr)" rx="8" ry="8" style="stroke:#A80036;stroke-width:1.5;"/><path d="M3149,79 L3149,106 M3136,87 L3162,87 M3149,106 L3136,121 M3149,106 L3162,121 " fill="none" filter="url(#f1n5vyi7h4d5wr)" style="stroke:#A80036;stroke-width:1.5;"/><text fill="#000000" font-family="sans-serif" font-size="14" lengthAdjust="spacing" textLength="47" x="3125.5" y="140.0352">Person</text><!--MD5=[953543167c6874d2f2ca47c5aea302dc]
entity comp--><rect fill="#FEFECE" filter="url(#f1n5vyi7h4d5wr)" height="62.9766" style="stroke:#A80036;stroke-width:1.5;" width="208" x="2623" y="323.5"/><rect fill="#FEFECE" height="10" style="stroke:#A80036;stroke-width:1.5;" width="15" x="2811" y="328.5"/><rect fill="#FEFECE" height="2" style="stroke:#A80036;stroke-width:1.5;" width="4" x="2809" y="330.5"/><rect fill="#FEFECE" height="2" style="stroke:#A80036;stroke-width:1.5;" width="4" x="2809" y="334.5"/><text fill="#000000" font-family="sans-serif" font-size="14" lengthAdjust="spacing" textLength="168" x="2638" y="357.0352">A single component that</text><text fill="#000000" font-family="sans-serif" font-size="14" lengthAdjust="spacing" textLength="116" x="2638" y="373.5234">can be executed.</text><!--MD5=[7468467f3b6b392f1d176d828c753b77]
entity db--><path d="M2866,334 C2866,324 2943,324 2943,324 C2943,324 3020,324 3020,334 L3020,375.9766 C3020,385.9766 2943,385.9766 2943,385.9766 C2943,385.9766 2866,385.9766 2866,375.9766 L2866,334 " fill="#FEFECE" filter="url(#f1n5vyi7h4d5wr)" style="stroke:#000000;stroke-width:1.5;"/><path d="M2866,334 C2866,344 2943,344 2943,344 C2943,344 3020,344 3020,334 " fill="none" style="stroke:#000000;stroke-width:1.5;"/><text fill="#000000" font-family="sans-serif" font-size="14" lengthAdjust="spacing" textLength="134" x="2876" y="361.5352">A Database to store</text><text fill="#000000" font-family="sans-serif" font-size="14" lengthAdjust="spacing" textLength="85" x="2876" y="378.0234">information.</text><!--MD5=[f4f3affaebc6bcf45391d97cb5bf2959]
entity E-Mail--><rect fill="#FEFECE" filter="url(#f1n5vyi7h4d5wr)" height="46.4883" style="stroke:#A80036;stroke-width:1.5;" width="84" x="2695" y="774.5"/><rect fill="#FEFECE" height="10" style="stroke:#A80036;stroke-width:1.5;" width="15" x="2759" y="779.5"/><rect fill="#FEFECE" height="2" style="stroke:#A80036;stroke-width:1.5;" width="4" x="2757" y="781.5"/><rect fill="#FEFECE" height="2" style="stroke:#A80036;stroke-width:1.5;" width="4" x="2757" y="785.5"/><text fill="#000000" font-family="sans-serif" font-size="14" lengthAdjust="spacing" textLength="44" x="2710" y="808.0352">E-Mail</text><!--MD5=[59f1894f32cf1c9d793262e1cb3a0382]
entity PrideMockDB--><path d="M2185.5,970 C2185.5,960 2292,960 2292,960 C2292,960 2398.5,960 2398.5,970 L2398.5,1036.4648 C2398.5,1046.4648 2292,1046.4648 2292,1046.4648 C2292,1046.4648 2185.5,1046.4648 2185.5,1036.4648 L2185.5,970 " fill="#FEFECE" filter="url(#f1n5vyi7h4d5wr)" style="stroke:#000000;stroke-width:1.5;"/><path d="M2185.5,970 C2185.5,980 2292,980 2292,980 C2292,980 2398.5,980 2398.5,970 " fill="none" style="stroke:#000000;stroke-width:1.5;"/><text fill="#000000" font-family="sans-serif" font-size="14" font-weight="bold" lengthAdjust="spacing" textLength="106" x="2195.5" y="997.5352">Pride mock DB</text><path d="M2185.5,995.4883 C2185.5,1005.4883 2292,1005.4883 2292,1005.4883 C2292,1005.4883 2398.5,1005.4883 2398.5,995.4883 " fill="none" style="stroke:#000000;stroke-width:1.0;"/><text fill="#000000" font-family="sans-serif" font-size="14" lengthAdjust="spacing" textLength="193" x="2195.5" y="1018.0234">Stores all the cached project</text><text fill="#000000" font-family="sans-serif" font-size="14" lengthAdjust="spacing" textLength="85" x="2195.5" y="1034.5117">information.</text><!--MD5=[f03134b8a53f606fdbc8b19159038cc4]
entity PrideMockServer--><rect fill="#FEFECE" filter="url(#f1n5vyi7h4d5wr)" height="153.418" style="stroke:#A80036;stroke-width:1.5;" width="237" x="2173.5" y="721"/><rect fill="#FEFECE" height="10" style="stroke:#A80036;stroke-width:1.5;" width="15" x="2390.5" y="726"/><rect fill="#FEFECE" height="2" style="stroke:#A80036;stroke-width:1.5;" width="4" x="2388.5" y="728"/><rect fill="#FEFECE" height="2" style="stroke:#A80036;stroke-width:1.5;" width="4" x="2388.5" y="732"/><text fill="#000000" font-family="sans-serif" font-size="14" font-weight="bold" lengthAdjust="spacing" textLength="129" x="2188.5" y="754.5352">Pride Mock Server</text><line style="stroke:#A80036;stroke-width:1.0;" x1="2174.5" x2="2409.5" y1="757.4883" y2="757.4883"/><text fill="#000000" font-family="sans-serif" font-size="14" lengthAdjust="spacing" textLength="162" x="2188.5" y="775.0234">Provides a mirror to the</text><text fill="#000000" font-family="sans-serif" font-size="14" lengthAdjust="spacing" textLength="147" x="2188.5" y="791.5117">PrideDB. This internal</text><text fill="#000000" font-family="sans-serif" font-size="14" lengthAdjust="spacing" textLength="172" x="2188.5" y="808">mirror allows for caching</text><text fill="#000000" font-family="sans-serif" font-size="14" lengthAdjust="spacing" textLength="162" x="2188.5" y="824.4883">often used projects and</text><text fill="#000000" font-family="sans-serif" font-size="14" lengthAdjust="spacing" textLength="197" x="2188.5" y="840.9766">thus faster download speeds</text><text fill="#000000" font-family="sans-serif" font-size="14" lengthAdjust="spacing" textLength="157" x="2188.5" y="857.4648">of these large projects.</text><!--MD5=[09054e2f2081a5b2540d13ecdc6f58c4]
entity Nextflow--><rect fill="#FEFECE" filter="url(#f1n5vyi7h4d5wr)" height="103.9531" style="stroke:#A80036;stroke-width:1.5;" width="249" x="1434.5" y="951"/><rect fill="#FEFECE" height="10" style="stroke:#A80036;stroke-width:1.5;" width="15" x="1663.5" y="956"/><rect fill="#FEFECE" height="2" style="stroke:#A80036;stroke-width:1.5;" width="4" x="1661.5" y="958"/><rect fill="#FEFECE" height="2" style="stroke:#A80036;stroke-width:1.5;" width="4" x="1661.5" y="962"/><text fill="#000000" font-family="sans-serif" font-size="14" font-weight="bold" lengthAdjust="spacing" textLength="65" x="1449.5" y="984.5352">Nextflow</text><line style="stroke:#A80036;stroke-width:1.0;" x1="1435.5" x2="1682.5" y1="987.4883" y2="987.4883"/><text fill="#000000" font-family="sans-serif" font-size="14" lengthAdjust="spacing" textLength="185" x="1449.5" y="1005.0234">Data-driven computational</text><text fill="#000000" font-family="sans-serif" font-size="14" lengthAdjust="spacing" textLength="209" x="1449.5" y="1021.5117">pipelines. Orchestrates Docker</text><text fill="#000000" font-family="sans-serif" font-size="14" lengthAdjust="spacing" textLength="76" x="1449.5" y="1038">containers.</text><!--MD5=[fb1239b090e799ef2ed2bb62c488a4ee]
entity Docker--><rect fill="#FEFECE" filter="url(#f1n5vyi7h4d5wr)" height="46.4883" style="stroke:#A80036;stroke-width:1.5;" width="88" x="1667" y="774.5"/><rect fill="#FEFECE" height="10" style="stroke:#A80036;stroke-width:1.5;" width="15" x="1735" y="779.5"/><rect fill="#FEFECE" height="2" style="stroke:#A80036;stroke-width:1.5;" width="4" x="1733" y="781.5"/><rect fill="#FEFECE" height="2" style="stroke:#A80036;stroke-width:1.5;" width="4" x="1733" y="785.5"/><text fill="#000000" font-family="sans-serif" font-size="14" lengthAdjust="spacing" textLength="48" x="1682" y="808.0352">Docker</text><!--MD5=[521ddc16fb938cd1bdff4487d57f874d]
entity proteomics--><rect fill="#FEFECE" filter="url(#f1n5vyi7h4d5wr)" height="136.9297" style="stroke:#A80036;stroke-width:1.5;" width="203" x="1653.5" y="484"/><rect fill="#FEFECE" height="10" style="stroke:#A80036;stroke-width:1.5;" width="15" x="1836.5" y="489"/><rect fill="#FEFECE" height="2" style="stroke:#A80036;stroke-width:1.5;" width="4" x="1834.5" y="491"/><rect fill="#FEFECE" height="2" style="stroke:#A80036;stroke-width:1.5;" width="4" x="1834.5" y="495"/><text fill="#000000" font-family="sans-serif" font-size="14" font-weight="bold" lengthAdjust="spacing" textLength="81" x="1668.5" y="517.5352">Proteomics</text><line style="stroke:#A80036;stroke-width:1.0;" x1="1654.5" x2="1855.5" y1="520.4883" y2="520.4883"/><text fill="#000000" font-family="sans-serif" font-size="14" lengthAdjust="spacing" textLength="110" x="1668.5" y="538.0234">Coordinates the</text><text fill="#000000" font-family="sans-serif" font-size="14" lengthAdjust="spacing" textLength="98" x="1668.5" y="554.5117">download and</text><text fill="#000000" font-family="sans-serif" font-size="14" lengthAdjust="spacing" textLength="119" x="1668.5" y="571">evaluation of one</text><text fill="#000000" font-family="sans-serif" font-size="14" lengthAdjust="spacing" textLength="118" x="1668.5" y="587.4883">or more projects.</text><text fill="#000000" font-family="sans-serif" font-size="14" lengthAdjust="spacing" textLength="163" x="1668.5" y="603.9766">Provides a CLI interface.</text><!--MD5=[56809a95a4f3776eb086a9aa68249a09]
entity ProteomicsServer--><rect fill="#FEFECE" filter="url(#f1n5vyi7h4d5wr)" height="103.9531" style="stroke:#A80036;stroke-width:1.5;" width="214" x="1468" y="303"/><rect fill="#FEFECE" height="10" style="stroke:#A80036;stroke-width:1.5;" width="15" x="1662" y="308"/><rect fill="#FEFECE" height="2" style="stroke:#A80036;stroke-width:1.5;" width="4" x="1660" y="310"/><rect fill="#FEFECE" height="2" style="stroke:#A80036;stroke-width:1.5;" width="4" x="1660" y="314"/><text fill="#000000" font-family="sans-serif" font-size="14" font-weight="bold" lengthAdjust="spacing" textLength="130" x="1483" y="336.5352">Proteomics Server</text><line style="stroke:#A80036;stroke-width:1.0;" x1="1469" x2="1681" y1="339.4883" y2="339.4883"/><text fill="#000000" font-family="sans-serif" font-size="14" lengthAdjust="spacing" textLength="174" x="1483" y="357.0234">Provides a HTTP interface</text><text fill="#000000" font-family="sans-serif" font-size="14" lengthAdjust="spacing" textLength="152" x="1483" y="373.5117">and acccess control to</text><text fill="#000000" font-family="sans-serif" font-size="14" lengthAdjust="spacing" textLength="168" x="1483" y="390">the proteomics package.</text><!--MD5=[0f4159cc359b1eebc62379649b037416]
entity ProteomicsDB--><path d="M1468,511 C1468,501 1543,501 1543,501 C1543,501 1618,501 1618,511 L1618,593.9531 C1618,603.9531 1543,603.9531 1543,603.9531 C1543,603.9531 1468,603.9531 1468,593.9531 L1468,511 " fill="#FEFECE" filter="url(#f1n5vyi7h4d5wr)" style="stroke:#000000;stroke-width:1.5;"/><path d="M1468,511 C1468,521 1543,521 1543,521 C1543,521 1618,521 1618,511 " fill="none" style="stroke:#000000;stroke-width:1.5;"/><text fill="#000000" font-family="sans-serif" font-size="14" font-weight="bold" lengthAdjust="spacing" textLength="106" x="1478" y="538.5352">Proteomics DB</text><path d="M1468,536.4883 C1468,546.4883 1543,546.4883 1543,546.4883 C1543,546.4883 1618,546.4883 1618,536.4883 " fill="none" style="stroke:#000000;stroke-width:1.0;"/><text fill="#000000" font-family="sans-serif" font-size="14" lengthAdjust="spacing" textLength="130" x="1478" y="559.0234">Access and current</text><text fill="#000000" font-family="sans-serif" font-size="14" lengthAdjust="spacing" textLength="130" x="1478" y="575.5117">evaluation projects</text><text fill="#000000" font-family="sans-serif" font-size="14" lengthAdjust="spacing" textLength="85" x="1478" y="592">information.</text><!--MD5=[39786f508e7bb6a11fd22a304a5b6f45]
entity MSFragger--><rect fill="#FEFECE" filter="url(#f1n5vyi7h4d5wr)" height="103.9531" style="stroke:#A80036;stroke-width:1.5;" width="320" x="925" y="1161"/><rect fill="#FEFECE" height="10" style="stroke:#A80036;stroke-width:1.5;" width="15" x="1225" y="1166"/><rect fill="#FEFECE" height="2" style="stroke:#A80036;stroke-width:1.5;" width="4" x="1223" y="1168"/><rect fill="#FEFECE" height="2" style="stroke:#A80036;stroke-width:1.5;" width="4" x="1223" y="1172"/><text fill="#000000" font-family="sans-serif" font-size="14" font-weight="bold" lengthAdjust="spacing" textLength="75" x="940" y="1194.5352">MSFragger</text><line style="stroke:#A80036;stroke-width:1.0;" x1="926" x2="1244" y1="1197.4883" y2="1197.4883"/><text fill="#000000" font-family="sans-serif" font-size="14" lengthAdjust="spacing" textLength="237" x="940" y="1215.0234">MSFragger is an ultrafast database</text><text fill="#000000" font-family="sans-serif" font-size="14" lengthAdjust="spacing" textLength="250" x="940" y="1231.5117">search tool for peptide identification</text><text fill="#000000" font-family="sans-serif" font-size="14" lengthAdjust="spacing" textLength="280" x="940" y="1248">in mass spectrometry-based proteomics.</text><!--MD5=[0dba75b72478b16fbf60bb99b66986ed]
entity Philosopher--><rect fill="#FEFECE" filter="url(#f1n5vyi7h4d5wr)" height="120.4414" style="stroke:#A80036;stroke-width:1.5;" width="262" x="1280" y="1153"/><rect fill="#FEFECE" height="10" style="stroke:#A80036;stroke-width:1.5;" width="15" x="1522" y="1158"/><rect fill="#FEFECE" height="2" style="stroke:#A80036;stroke-width:1.5;" width="4" x="1520" y="1160"/><rect fill="#FEFECE" height="2" style="stroke:#A80036;stroke-width:1.5;" width="4" x="1520" y="1164"/><text fill="#000000" font-family="sans-serif" font-size="14" font-weight="bold" lengthAdjust="spacing" textLength="86" x="1295" y="1186.5352">Philosopher</text><line style="stroke:#A80036;stroke-width:1.0;" x1="1281" x2="1541" y1="1189.4883" y2="1189.4883"/><text fill="#000000" font-family="sans-serif" font-size="14" lengthAdjust="spacing" textLength="222" x="1295" y="1207.0234">Philosopher is fast, easy-to-use,</text><text fill="#000000" font-family="sans-serif" font-size="14" lengthAdjust="spacing" textLength="184" x="1295" y="1223.5117">scalable, and versatile data</text><text fill="#000000" font-family="sans-serif" font-size="14" lengthAdjust="spacing" textLength="180" x="1295" y="1240">analysis software for mass</text><text fill="#000000" font-family="sans-serif" font-size="14" lengthAdjust="spacing" textLength="220" x="1295" y="1256.4883">spectrometry-based proteomics</text><!--MD5=[ca4fca654d8994778fee589c6b3ae58e]
entity R--><rect fill="#FEFECE" filter="url(#f1n5vyi7h4d5wr)" height="120.4414" style="stroke:#A80036;stroke-width:1.5;" width="279" x="1577.5" y="1153"/><rect fill="#FEFECE" height="10" style="stroke:#A80036;stroke-width:1.5;" width="15" x="1836.5" y="1158"/><rect fill="#FEFECE" height="2" style="stroke:#A80036;stroke-width:1.5;" width="4" x="1834.5" y="1160"/><rect fill="#FEFECE" height="2" style="stroke:#A80036;stroke-width:1.5;" width="4" x="1834.5" y="1164"/><text fill="#000000" font-family="sans-serif" font-size="14" font-weight="bold" lengthAdjust="spacing" textLength="79" x="1592.5" y="1186.5352">R/MSSTats</text><line style="stroke:#A80036;stroke-width:1.0;" x1="1578.5" x2="1855.5" y1="1189.4883" y2="1189.4883"/><text fill="#000000" font-family="sans-serif" font-size="14" lengthAdjust="spacing" textLength="212" x="1592.5" y="1207.0234">Downstream statistical analysis</text><text fill="#000000" font-family="sans-serif" font-size="14" lengthAdjust="spacing" textLength="236" x="1592.5" y="1223.5117">for comparison of peptide/protein</text><text fill="#000000" font-family="sans-serif" font-size="14" lengthAdjust="spacing" textLength="239" x="1592.5" y="1240">abundances for different identified</text><text fill="#000000" font-family="sans-serif" font-size="14" lengthAdjust="spacing" textLength="56" x="1592.5" y="1256.4883">cohorts.</text><!--MD5=[6521d8041662e563f18f3d93b3fdc8da]
entity IonQuant--><rect fill="#FEFECE" filter="url(#f1n5vyi7h4d5wr)" height="120.4414" style="stroke:#A80036;stroke-width:1.5;" width="264" x="323" y="1153"/><rect fill="#FEFECE" height="10" style="stroke:#A80036;stroke-width:1.5;" width="15" x="567" y="1158"/><rect fill="#FEFECE" height="2" style="stroke:#A80036;stroke-width:1.5;" width="4" x="565" y="1160"/><rect fill="#FEFECE" height="2" style="stroke:#A80036;stroke-width:1.5;" width="4" x="565" y="1164"/><text fill="#000000" font-family="sans-serif" font-size="14" font-weight="bold" lengthAdjust="spacing" textLength="67" x="338" y="1186.5352">IonQuant</text><line style="stroke:#A80036;stroke-width:1.0;" x1="324" x2="586" y1="1189.4883" y2="1189.4883"/><text fill="#000000" font-family="sans-serif" font-size="14" lengthAdjust="spacing" textLength="212" x="338" y="1207.0234">A label free quantification tool.</text><text fill="#000000" font-family="sans-serif" font-size="14" lengthAdjust="spacing" textLength="224" x="338" y="1223.5117">Enables label-free quantification</text><text fill="#000000" font-family="sans-serif" font-size="14" lengthAdjust="spacing" textLength="207" x="338" y="1240">with false discovery controlled</text><text fill="#000000" font-family="sans-serif" font-size="14" lengthAdjust="spacing" textLength="151" x="338" y="1256.4883">match-between-runs.</text><!--MD5=[054276f0b781be075dcd8e098f8644d7]
entity ThermoRawFileParser--><rect fill="#FEFECE" filter="url(#f1n5vyi7h4d5wr)" height="103.9531" style="stroke:#A80036;stroke-width:1.5;" width="268" x="622" y="1161"/><rect fill="#FEFECE" height="10" style="stroke:#A80036;stroke-width:1.5;" width="15" x="870" y="1166"/><rect fill="#FEFECE" height="2" style="stroke:#A80036;stroke-width:1.5;" width="4" x="868" y="1168"/><rect fill="#FEFECE" height="2" style="stroke:#A80036;stroke-width:1.5;" width="4" x="868" y="1172"/><text fill="#000000" font-family="sans-serif" font-size="14" font-weight="bold" lengthAdjust="spacing" textLength="157" x="637" y="1194.5352">ThermoRawFileParser</text><line style="stroke:#A80036;stroke-width:1.0;" x1="623" x2="889" y1="1197.4883" y2="1197.4883"/><text fill="#000000" font-family="sans-serif" font-size="14" lengthAdjust="spacing" textLength="221" x="637" y="1215.0234">takes a thermo RAW file as input</text><text fill="#000000" font-family="sans-serif" font-size="14" lengthAdjust="spacing" textLength="218" x="637" y="1231.5117">and outputs a metadata file and</text><text fill="#000000" font-family="sans-serif" font-size="14" lengthAdjust="spacing" textLength="228" x="637" y="1248">the spectra in 3 possible formats.</text><!--MD5=[cd1358115ffdbbcc67a40957d1a92882]
entity Freequant--><rect fill="#FEFECE" filter="url(#f1n5vyi7h4d5wr)" height="103.9531" style="stroke:#A80036;stroke-width:1.5;" width="266" x="1061" y="1353"/><rect fill="#FEFECE" height="10" style="stroke:#A80036;stroke-width:1.5;" width="15" x="1307" y="1358"/><rect fill="#FEFECE" height="2" style="stroke:#A80036;stroke-width:1.5;" width="4" x="1305" y="1360"/><rect fill="#FEFECE" height="2" style="stroke:#A80036;stroke-width:1.5;" width="4" x="1305" y="1364"/><text fill="#000000" font-family="sans-serif" font-size="14" font-weight="bold" lengthAdjust="spacing" textLength="71" x="1076" y="1386.5352">Freequant</text><line style="stroke:#A80036;stroke-width:1.0;" x1="1062" x2="1326" y1="1389.4883" y2="1389.4883"/><text fill="#000000" font-family="sans-serif" font-size="14" lengthAdjust="spacing" textLength="226" x="1076" y="1407.0234">Perform label-free quantification</text><text fill="#000000" font-family="sans-serif" font-size="14" lengthAdjust="spacing" textLength="220" x="1076" y="1423.5117">via precursor (MS1) abundances</text><text fill="#000000" font-family="sans-serif" font-size="14" lengthAdjust="spacing" textLength="153" x="1076" y="1440">and spectral counting.</text><!--MD5=[5e0eb5547ef8b568a16e8c7259a4ebfd]
entity Labelquant--><rect fill="#FEFECE" filter="url(#f1n5vyi7h4d5wr)" height="103.9531" style="stroke:#A80036;stroke-width:1.5;" width="209" x="1362.5" y="1353"/><rect fill="#FEFECE" height="10" style="stroke:#A80036;stroke-width:1.5;" width="15" x="1551.5" y="1358"/><rect fill="#FEFECE" height="2" style="stroke:#A80036;stroke-width:1.5;" width="4" x="1549.5" y="1360"/><rect fill="#FEFECE" height="2" style="stroke:#A80036;stroke-width:1.5;" width="4" x="1549.5" y="1364"/><text fill="#000000" font-family="sans-serif" font-size="14" font-weight="bold" lengthAdjust="spacing" textLength="79" x="1377.5" y="1386.5352">Labelquant</text><line style="stroke:#A80036;stroke-width:1.0;" x1="1363.5" x2="1570.5" y1="1389.4883" y2="1389.4883"/><text fill="#000000" font-family="sans-serif" font-size="14" lengthAdjust="spacing" textLength="148" x="1377.5" y="1407.0234">Protein quantification</text><text fill="#000000" font-family="sans-serif" font-size="14" lengthAdjust="spacing" textLength="121" x="1377.5" y="1423.5117">based on isobaric</text><text fill="#000000" font-family="sans-serif" font-size="14" lengthAdjust="spacing" textLength="169" x="1377.5" y="1440">labeling (TMT or iTRAQ).</text><!--MD5=[477de40e04f2ea206fa276040375fdf3]
entity ProteinProphet--><rect fill="#FEFECE" filter="url(#f1n5vyi7h4d5wr)" height="87.4648" style="stroke:#A80036;stroke-width:1.5;" width="195" x="1606.5" y="1361.5"/><rect fill="#FEFECE" height="10" style="stroke:#A80036;stroke-width:1.5;" width="15" x="1781.5" y="1366.5"/><rect fill="#FEFECE" height="2" style="stroke:#A80036;stroke-width:1.5;" width="4" x="1779.5" y="1368.5"/><rect fill="#FEFECE" height="2" style="stroke:#A80036;stroke-width:1.5;" width="4" x="1779.5" y="1372.5"/><text fill="#000000" font-family="sans-serif" font-size="14" font-weight="bold" lengthAdjust="spacing" textLength="108" x="1621.5" y="1395.0352">ProteinProphet</text><line style="stroke:#A80036;stroke-width:1.0;" x1="1607.5" x2="1800.5" y1="1397.9883" y2="1397.9883"/><text fill="#000000" font-family="sans-serif" font-size="14" lengthAdjust="spacing" textLength="154" x="1621.5" y="1415.5234">Statistical validation of</text><text fill="#000000" font-family="sans-serif" font-size="14" lengthAdjust="spacing" textLength="155" x="1621.5" y="1432.0117">protein identifications.</text><!--MD5=[145ab856499296dc0057f6aa841722ae]
entity PeptideProphet--><rect fill="#FEFECE" filter="url(#f1n5vyi7h4d5wr)" height="87.4648" style="stroke:#A80036;stroke-width:1.5;" width="194" x="832" y="1361.5"/><rect fill="#FEFECE" height="10" style="stroke:#A80036;stroke-width:1.5;" width="15" x="1006" y="1366.5"/><rect fill="#FEFECE" height="2" style="stroke:#A80036;stroke-width:1.5;" width="4" x="1004" y="1368.5"/><rect fill="#FEFECE" height="2" style="stroke:#A80036;stroke-width:1.5;" width="4" x="1004" y="1372.5"/><text fill="#000000" font-family="sans-serif" font-size="14" font-weight="bold" lengthAdjust="spacing" textLength="110" x="847" y="1395.0352">PeptideProphet</text><line style="stroke:#A80036;stroke-width:1.0;" x1="833" x2="1025" y1="1397.9883" y2="1397.9883"/><text fill="#000000" font-family="sans-serif" font-size="14" lengthAdjust="spacing" textLength="154" x="847" y="1415.5234">Statistical validation of</text><text fill="#000000" font-family="sans-serif" font-size="14" lengthAdjust="spacing" textLength="146" x="847" y="1432.0117">peptide assignments.</text><!--MD5=[fdd22e4b6b950d666f86266e4e8a8b82]
entity FrontendDB--><path d="M27,756 C27,746 133,746 133,746 C133,746 239,746 239,756 L239,838.9531 C239,848.9531 133,848.9531 133,848.9531 C133,848.9531 27,848.9531 27,838.9531 L27,756 " fill="#FEFECE" filter="url(#f1n5vyi7h4d5wr)" style="stroke:#000000;stroke-width:1.5;"/><path d="M27,756 C27,766 133,766 133,766 C133,766 239,766 239,756 " fill="none" style="stroke:#000000;stroke-width:1.5;"/><text fill="#000000" font-family="sans-serif" font-size="14" font-weight="bold" lengthAdjust="spacing" textLength="89" x="37" y="783.5352">Frontend DB</text><path d="M27,781.4883 C27,791.4883 133,791.4883 133,791.4883 C133,791.4883 239,791.4883 239,781.4883 " fill="none" style="stroke:#000000;stroke-width:1.0;"/><text fill="#000000" font-family="sans-serif" font-size="14" lengthAdjust="spacing" textLength="181" x="37" y="804.0234">Configuration information</text><text fill="#000000" font-family="sans-serif" font-size="14" lengthAdjust="spacing" textLength="192" x="37" y="820.5117">about the available backend</text><text fill="#000000" font-family="sans-serif" font-size="14" lengthAdjust="spacing" textLength="128" x="37" y="837">evaluation servers.</text><!--MD5=[8207ef9ccb388a159bf1c6b82a768163]
entity FrontendGUI--><rect fill="#FEFECE" filter="url(#f1n5vyi7h4d5wr)" height="103.9531" style="stroke:#A80036;stroke-width:1.5;" width="204" x="37" y="303"/><rect fill="#FEFECE" height="10" style="stroke:#A80036;stroke-width:1.5;" width="15" x="221" y="308"/><rect fill="#FEFECE" height="2" style="stroke:#A80036;stroke-width:1.5;" width="4" x="219" y="310"/><rect fill="#FEFECE" height="2" style="stroke:#A80036;stroke-width:1.5;" width="4" x="219" y="314"/><text fill="#000000" font-family="sans-serif" font-size="14" font-weight="bold" lengthAdjust="spacing" textLength="94" x="52" y="336.5352">Frontend GUI</text><line style="stroke:#A80036;stroke-width:1.0;" x1="38" x2="240" y1="339.4883" y2="339.4883"/><text fill="#000000" font-family="sans-serif" font-size="14" lengthAdjust="spacing" textLength="150" x="52" y="357.0234">A modern and easy to</text><text fill="#000000" font-family="sans-serif" font-size="14" lengthAdjust="spacing" textLength="164" x="52" y="373.5117">use browser GUI written</text><text fill="#000000" font-family="sans-serif" font-size="14" lengthAdjust="spacing" textLength="60" x="52" y="390">in vue.js.</text><!--MD5=[946d5d05ca5f58c5f1ce1fb1c9762329]
entity BackendGUI--><rect fill="#FEFECE" filter="url(#f1n5vyi7h4d5wr)" height="103.9531" style="stroke:#A80036;stroke-width:1.5;" width="219" x="23.5" y="500.5"/><rect fill="#FEFECE" height="10" style="stroke:#A80036;stroke-width:1.5;" width="15" x="222.5" y="505.5"/><rect fill="#FEFECE" height="2" style="stroke:#A80036;stroke-width:1.5;" width="4" x="220.5" y="507.5"/><rect fill="#FEFECE" height="2" style="stroke:#A80036;stroke-width:1.5;" width="4" x="220.5" y="511.5"/><text fill="#000000" font-family="sans-serif" font-size="14" font-weight="bold" lengthAdjust="spacing" textLength="89" x="38.5" y="534.0352">Backend GUI</text><line style="stroke:#A80036;stroke-width:1.0;" x1="24.5" x2="241.5" y1="536.9883" y2="536.9883"/><text fill="#000000" font-family="sans-serif" font-size="14" lengthAdjust="spacing" textLength="179" x="38.5" y="554.5234">Allows for communication</text><text fill="#000000" font-family="sans-serif" font-size="14" lengthAdjust="spacing" textLength="170" x="38.5" y="571.0117">between the frontend DB</text><text fill="#000000" font-family="sans-serif" font-size="14" lengthAdjust="spacing" textLength="58" x="38.5" y="587.5">and GUI.</text><!--MD5=[e56074d11d10e222c2e966bc744b7119]
entity Biologist--><ellipse cx="139" cy="71" fill="#FEFECE" filter="url(#f1n5vyi7h4d5wr)" rx="8" ry="8" style="stroke:#A80036;stroke-width:1.5;"/><path d="M139,79 L139,106 M126,87 L152,87 M139,106 L126,121 M139,106 L152,121 " fill="none" filter="url(#f1n5vyi7h4d5wr)" style="stroke:#A80036;stroke-width:1.5;"/><text fill="#000000" font-family="sans-serif" font-size="14" lengthAdjust="spacing" textLength="59" x="109.5" y="140.0352">Biologist</text><!--MD5=[14ab0476c10633294ff19caacb372a11]
entity BiologistDev--><ellipse cx="2544" cy="324" fill="#FEFECE" filter="url(#f1n5vyi7h4d5wr)" rx="8" ry="8" style="stroke:#A80036;stroke-width:1.5;"/><path d="M2544,332 L2544,359 M2531,340 L2557,340 M2544,359 L2531,374 M2544,359 L2557,374 " fill="none" filter="url(#f1n5vyi7h4d5wr)" style="stroke:#A80036;stroke-width:1.5;"/><text fill="#000000" font-family="sans-serif" font-size="14" lengthAdjust="spacing" textLength="88" x="2500" y="393.0352">Biologist Dev</text><!--MD5=[0d5d4968fa2e454bbef182c01db01571]
entity Workflows--><rect fill="#FEFECE" filter="url(#f1n5vyi7h4d5wr)" height="109.9531" style="stroke:#000000;stroke-width:1.5;" width="107" x="2492.5" y="1350"/><text fill="#000000" font-family="sans-serif" font-size="14" font-weight="bold" lengthAdjust="spacing" textLength="77" x="2502.5" y="1373.5352">Workflows</text><line style="stroke:#000000;stroke-width:1.0;" x1="2493.5" x2="2598.5" y1="1376.4883" y2="1376.4883"/><line style="stroke:#000000;stroke-width:1.0;" x1="2493.5" x2="2598.5" y1="1378.4883" y2="1378.4883"/><text fill="#000000" font-family="sans-serif" font-size="14" lengthAdjust="spacing" textLength="70" x="2502.5" y="1394.0234">Label Free</text><line style="stroke:#000000;stroke-width:1.0;" x1="2493.5" x2="2598.5" y1="1400.9766" y2="1400.9766"/><text fill="#000000" font-family="sans-serif" font-size="14" lengthAdjust="spacing" textLength="87" x="2502.5" y="1418.5117">Open Search</text><line style="stroke:#000000;stroke-width:1.0;" x1="2493.5" x2="2598.5" y1="1425.4648" y2="1425.4648"/><text fill="#000000" font-family="sans-serif" font-size="14" lengthAdjust="spacing" textLength="30" x="2502.5" y="1443">TMT</text><!--MD5=[993212f6264f5472ec0a2e42536e37f5]
entity Gitlab--><path d="M2471.2939,1178.6685 C2475.1011,1173.6122 2479.0701,1172.2686 2483.4221,1178.0594 C2486.9843,1172.2786 2493.2536,1170.4364 2497.2075,1177.6437 C2499.5921,1171.424 2505.1346,1169.8334 2509.6447,1175.4012 C2512.9426,1168.354 2519.0941,1168.635 2522.674,1175.13 C2525.7699,1169.554 2530.5878,1170.1375 2534.0369,1174.7356 C2537.0878,1167.3306 2541.969,1166.4802 2547.3236,1172.4465 C2551.1483,1166.3667 2556.6605,1168.0285 2559.3589,1173.609 C2564.3184,1168.5522 2568.464,1168.736 2572.5398,1174.6689 C2576.7233,1168.578 2581.2994,1168.186 2585.3349,1174.8178 C2590.0747,1169.6932 2595.6731,1170.9488 2598.4054,1177.1372 C2602.1537,1171.0568 2607.0949,1171.9562 2610.7438,1177.245 C2614.7035,1171.3351 2620.0095,1172.9983 2622.9491,1178.3506 C2629.1353,1181.1641 2629.6751,1185.5978 2624.2308,1189.7223 C2630.5593,1193.1991 2630.7234,1197.1413 2626.182,1202.3039 C2632.8048,1204.3859 2634.846,1208.4545 2629.9628,1214.195 C2634.8203,1219.0543 2632.9971,1224.196 2626.6025,1225.7961 C2632.0541,1229.8286 2631.3618,1235.1809 2625.4963,1238.2046 C2630.6594,1242.5552 2629.0687,1247.7152 2622.765,1249.2236 C2618.5005,1255.1117 2614.4418,1254.8077 2609.9402,1249.4952 C2605.8912,1255.3496 2601.1771,1256.1793 2597.0026,1249.626 C2593.495,1255.1546 2589.9813,1256.3103 2585.3694,1250.7885 C2581.0184,1256.5749 2577.0929,1257.486 2572.7081,1250.823 C2568.6102,1256.4667 2564.1608,1257.414 2559.3383,1251.674 C2554.5489,1256.6475 2550.9052,1255.7991 2547.2443,1250.3629 C2543.5628,1257.1056 2538.5813,1256.4255 2534.4164,1250.8671 C2530.1653,1256.4627 2525.563,1257.946 2521.009,1251.1961 C2517.0006,1257.2084 2510.9952,1255.9903 2508.4539,1249.699 C2505.0112,1255.8458 2499.5839,1255.5265 2496.0289,1249.8167 C2493.1764,1256.1274 2487.3641,1255.9158 2484.0663,1250.2619 C2479.9792,1256.3594 2474.8497,1258.2472 2470.1459,1250.9004 C2465.0039,1246.3593 2465.5145,1242.1989 2470.9907,1238.3739 C2465.3844,1235.7673 2463.991,1229.8805 2470.0824,1226.3877 C2464.6434,1223.167 2463.5823,1217.8888 2469.5493,1214.1704 C2462.9686,1210.4537 2463.9961,1205.2252 2469.5854,1201.5433 C2465.3245,1197.3478 2464.3517,1193.6933 2470.6543,1190.5224 C2466.0157,1187.0774 2465.8602,1181.57 2471.2939,1178.6685 " fill="#FEFECE" filter="url(#f1n5vyi7h4d5wr)" style="stroke:#000000;stroke-width:1.5;"/><text fill="#000000" font-family="sans-serif" font-size="14" font-weight="bold" lengthAdjust="spacing" textLength="43" x="2477" y="1198.0352">Gitlab</text><line style="stroke:#000000;stroke-width:1.0;" x1="2463" x2="2629" y1="1200.9883" y2="1200.9883"/><text fill="#000000" font-family="sans-serif" font-size="14" lengthAdjust="spacing" textLength="135" x="2477" y="1218.5234">Contains all custom</text><text fill="#000000" font-family="sans-serif" font-size="14" lengthAdjust="spacing" textLength="138" x="2477" y="1235.0117">nextflow workflows.</text><!--MD5=[0bc31cea472f4eb4c1207c92992a6792]
entity NFCore--><path d="M2016.2939,1178.6685 C2020.1011,1173.6122 2024.0701,1172.2686 2028.4221,1178.0594 C2031.9843,1172.2786 2038.2536,1170.4364 2042.2075,1177.6437 C2044.5921,1171.424 2050.1346,1169.8334 2054.6447,1175.4012 C2057.9426,1168.354 2064.0941,1168.635 2067.674,1175.13 C2070.7699,1169.554 2075.5878,1170.1375 2079.0369,1174.7356 C2082.0878,1167.3306 2086.969,1166.4802 2092.3236,1172.4465 C2096.1483,1166.3667 2101.6605,1168.0285 2104.3589,1173.609 C2109.3184,1168.5522 2113.464,1168.736 2117.5398,1174.6689 C2121.7233,1168.578 2126.2994,1168.186 2130.3349,1174.8178 C2135.0747,1169.6932 2140.6731,1170.9488 2143.4054,1177.1372 C2147.1537,1171.0568 2152.0949,1171.9562 2155.7438,1177.245 C2159.7035,1171.3351 2165.0095,1172.9983 2167.9491,1178.3506 C2174.1353,1181.1641 2174.6751,1185.5978 2169.2308,1189.7223 C2175.5593,1193.1991 2175.7234,1197.1413 2171.182,1202.3039 C2177.8048,1204.3859 2179.846,1208.4545 2174.9628,1214.195 C2179.8203,1219.0543 2177.9971,1224.196 2171.6025,1225.7961 C2177.0541,1229.8286 2176.3618,1235.1809 2170.4963,1238.2046 C2175.6594,1242.5552 2174.0687,1247.7152 2167.765,1249.2236 C2163.5005,1255.1117 2159.4418,1254.8077 2154.9402,1249.4952 C2150.8912,1255.3496 2146.1771,1256.1793 2142.0026,1249.626 C2138.495,1255.1546 2134.9813,1256.3103 2130.3694,1250.7885 C2126.0184,1256.5749 2122.0929,1257.486 2117.7081,1250.823 C2113.6102,1256.4667 2109.1608,1257.414 2104.3383,1251.674 C2099.5489,1256.6475 2095.9052,1255.7991 2092.2443,1250.3629 C2088.5628,1257.1056 2083.5813,1256.4255 2079.4164,1250.8671 C2075.1653,1256.4627 2070.563,1257.946 2066.009,1251.1961 C2062.0006,1257.2084 2055.9952,1255.9903 2053.4539,1249.699 C2050.0112,1255.8458 2044.5839,1255.5265 2041.0289,1249.8167 C2038.1764,1256.1274 2032.3641,1255.9158 2029.0663,1250.2619 C2024.9792,1256.3594 2019.8497,1258.2472 2015.1459,1250.9004 C2010.0039,1246.3593 2010.5145,1242.1989 2015.9907,1238.3739 C2010.3844,1235.7673 2008.991,1229.8805 2015.0824,1226.3877 C2009.6434,1223.167 2008.5823,1217.8888 2014.5493,1214.1704 C2007.9686,1210.4537 2008.9961,1205.2252 2014.5854,1201.5433 C2010.3245,1197.3478 2009.3517,1193.6933 2015.6543,1190.5224 C2011.0157,1187.0774 2010.8602,1181.57 2016.2939,1178.6685 " fill="#FEFECE" filter="url(#f1n5vyi7h4d5wr)" style="stroke:#000000;stroke-width:1.5;"/><text fill="#000000" font-family="sans-serif" font-size="14" font-weight="bold" lengthAdjust="spacing" textLength="54" x="2022" y="1198.0352">nf-core</text><line style="stroke:#000000;stroke-width:1.0;" x1="2008" x2="2174" y1="1200.9883" y2="1200.9883"/><text fill="#000000" font-family="sans-serif" font-size="14" lengthAdjust="spacing" textLength="122" x="2022" y="1218.5234">Contains external</text><text fill="#000000" font-family="sans-serif" font-size="14" lengthAdjust="spacing" textLength="138" x="2022" y="1235.0117">nextflow workflows.</text><!--MD5=[d94de7339830101782f7d1d85ee30a29]
entity GitHub--><path d="M2154.5519,1391.2944 C2157.969,1383.5194 2165.3903,1383.1127 2170.0735,1389.9495 C2173.1356,1381.8119 2180.9694,1381.4526 2186.2037,1387.475 C2192.4696,1381.7169 2198.5106,1381.6505 2202.1512,1390.3674 C2206.4041,1385.0855 2212.1846,1384.7734 2215.7813,1391.1354 C2224.753,1393.5468 2226.0298,1400.9743 2219.6911,1407.1286 C2226.265,1411.9025 2225.6533,1418.7534 2217.6648,1421.4697 C2213.8144,1430.2926 2207.6532,1431.5929 2200.4888,1425.214 C2197.6882,1433.6797 2192.7851,1435.2879 2185.5675,1430.0093 C2178.7822,1437.1754 2173.2959,1435.2296 2170.32,1426.3822 C2164.0581,1431.6671 2158.4936,1429.0027 2156.6797,1421.6001 C2147.9235,1420.8342 2145.0694,1413.7399 2150.1478,1406.8483 C2143.2821,1400.1105 2145.8534,1393.6252 2154.5519,1391.2944 " fill="#FEFECE" filter="url(#f1n5vyi7h4d5wr)" style="stroke:#000000;stroke-width:1.5;"/><text fill="#000000" font-family="sans-serif" font-size="14" lengthAdjust="spacing" textLength="47" x="2161.5" y="1410.5352">GitHub</text><!--MD5=[96756eab9b1e91a374a9560e8672cf5c]
entity PrideDB--><path d="M1922.5546,968.8904 C1925.5926,961.3925 1932.0264,961.8092 1936.252,967.6731 C1940.373,958.553 1947.8257,960.4079 1952.6518,966.934 C1957.0019,960.1248 1964.0927,957.867 1969.1263,966.1899 C1974.1423,959.3779 1978.6521,959.7457 1983.2684,966.6034 C1985.7717,957.9082 1992.2984,957.5148 1997.6891,963.8292 C2001.7962,955.7604 2007.9343,955.7139 2012.6125,963.2843 C2017.0141,954.471 2024.5318,953.8112 2029.6496,962.5907 C2034.1334,955.1532 2040.589,956.092 2044.1447,963.497 C2049.1461,957.061 2056.0053,957.7218 2059.8886,964.7997 C2065.2998,957.6015 2070.6535,957.9939 2075.0343,965.8373 C2080.3552,958.9825 2085.2458,960.4359 2088.9043,967.4945 C2093.7732,960.1269 2100.2955,959.0074 2105.1969,967.4612 C2110.417,960.0431 2117.0234,960.3775 2120.6547,968.993 C2124.4623,962.8077 2129.945,962.1434 2133.8827,968.8596 C2142.3904,973.512 2143.1894,981.6259 2134.8233,987.1463 C2145.494,991.1007 2145.265,999.6972 2136.8672,1005.7469 C2143.8273,1010.5251 2144.8947,1017.8208 2136.911,1022.6377 C2144.0152,1029.5791 2144.5474,1036.1813 2134.457,1040.7994 C2131.042,1047.192 2124.6598,1048.19 2119.9494,1042.3337 C2115.1709,1050.6798 2107.5566,1050.9647 2103.2458,1041.8855 C2098.9609,1048.9332 2094.7906,1047.9606 2090.3327,1042.0581 C2085.44,1049.1221 2080.1636,1050.0524 2075.0822,1042.2517 C2070.9676,1050.1962 2065.9032,1052.3384 2058.9078,1045.3777 C2053.9708,1052.7177 2046.1187,1052.3036 2042.2864,1044.1896 C2039.9494,1051.9818 2035.0242,1051.9312 2029.7282,1047.1434 C2023.9689,1053.3134 2018.53,1054.6013 2013.9287,1045.9121 C2007.412,1052.1944 2002.2244,1052.2719 1997.9442,1043.5323 C1994.7359,1050.2343 1988.1016,1050.0057 1984.3054,1044.172 C1978.1192,1051.7743 1971.7528,1050.6831 1967.3956,1042.2439 C1963.3315,1048.1592 1957.2374,1048.1361 1953.5395,1041.8288 C1949.4207,1050.1942 1941.6516,1048.9029 1937.5286,1041.8331 C1932.4963,1047.7688 1926.0016,1046.4458 1922.9247,1039.5991 C1915.1338,1035.2747 1914.6262,1029.3391 1920.5916,1023.0727 C1909.0492,1019.613 1907.6889,1011.2018 1916.7545,1003.6673 C1911.0767,996.5547 1912.1045,990.5346 1920.4739,986.458 C1912.5379,979.9715 1913.7186,973.3905 1922.5546,968.8904 " fill="#FEFECE" filter="url(#f1n5vyi7h4d5wr)" style="stroke:#000000;stroke-width:1.5;"/><text fill="#000000" font-family="sans-serif" font-size="14" font-weight="bold" lengthAdjust="spacing" textLength="108" x="1928" y="988.0352">Pride Database</text><line style="stroke:#000000;stroke-width:1.0;" x1="1914" x2="2140" y1="990.9883" y2="990.9883"/><text fill="#000000" font-family="sans-serif" font-size="14" lengthAdjust="spacing" textLength="198" x="1928" y="1008.5234">User uploaded measurement</text><text fill="#000000" font-family="sans-serif" font-size="14" lengthAdjust="spacing" textLength="161" x="1928" y="1025.0117">data from experiments.</text><!--MD5=[36094ac60d4c58d16a2f4b544a9b865d]
entity StringDB--><path d="M2461.4869,754.4674 C2467.094,747.6344 2471.8795,746.2399 2477.0928,754.865 C2480.1508,746.9256 2486.6968,746.1931 2491.8414,752.7408 C2496.5288,743.2671 2503.1062,742.5671 2509.223,751.3823 C2513.8864,744.4467 2518.7603,744.0925 2523.7495,751.0414 C2527.7962,742.9038 2535.6539,743.662 2539.7891,750.9493 C2542.9825,744.1243 2548.2368,742.1945 2553.4072,748.9696 C2558.7357,741.0399 2565.5972,742.5494 2569.5935,750.3413 C2574.8383,742.0119 2581.4048,743.8408 2586.2584,750.7686 C2591.124,743.5677 2597.2936,744.1153 2601.4139,751.5408 C2606.1491,745.8372 2612.0443,744.9753 2615.5732,752.8031 C2620.5716,745.2341 2627.1266,745.3123 2631.8603,753.0842 C2640.7957,746.2178 2650.1485,748.1281 2652,760.5 C2653.4077,760.7796 2654.2526,761.7434 2653.1516,763.124 C2662.868,765.3227 2664.4392,772.3411 2657.9046,779.3113 C2667.9111,782.5646 2671.6734,788.0447 2664.9692,797.7133 C2670.6528,806.2869 2670.268,813.472 2658.7906,816.3591 C2665.4392,829.0026 2659.1077,840.2164 2645,841.4531 C2645.8641,840.545 2647.1177,840.6968 2647.5668,841.9467 C2643.6657,850.8171 2636.1704,849.734 2631.2853,842.9716 C2627.8831,850.2644 2620.9078,851.8458 2616.1513,844.3584 C2612.6908,851.3261 2605.8189,852.054 2601.2745,845.556 C2595.893,854.1881 2589.8258,854.7444 2584.299,845.6955 C2580.7482,853.1035 2575.2402,852.8767 2570.1503,847.3835 C2565.4264,854.3876 2559.8428,855.0738 2554.4057,848.1922 C2550.5655,855.8035 2542.6236,854.7553 2538.5455,848.4637 C2533.3309,854.6194 2528.6081,855.0366 2524.1569,847.6525 C2518.7371,855.2683 2511.6718,852.0097 2508.9988,844.8371 C2504.2221,852.6692 2496.2981,852.6856 2492.7492,843.6539 C2489.1816,850.6188 2483.7102,851.5408 2478.9446,844.8664 C2466.8356,854.7167 2456.4896,847.6458 2454,834.4531 C2455.3776,833.8395 2456.1881,834.4288 2456.1246,835.9127 C2445.722,831.9391 2445.834,823.9481 2453.1508,817.164 C2443.2033,811.2628 2441.8159,804.6364 2452.0125,797.5652 C2442.7701,792.5966 2444.9993,785.1613 2452.2238,780.3953 C2443.5009,768.8391 2446.0352,757.3268 2461,753.5 C2461.5693,753.5591 2461.7758,753.9764 2461.4869,754.4674 " fill="#FEFECE" filter="url(#f1n5vyi7h4d5wr)" style="stroke:#000000;stroke-width:1.5;"/><text fill="#000000" font-family="sans-serif" font-size="14" font-weight="bold" lengthAdjust="spacing" textLength="63" x="2461" y="774.0352">StringDB</text><line style="stroke:#000000;stroke-width:1.0;" x1="2447" x2="2659" y1="776.9883" y2="776.9883"/><text fill="#000000" font-family="sans-serif" font-size="14" lengthAdjust="spacing" textLength="184" x="2461" y="794.5234">Protein-Protein Interaction</text><text fill="#000000" font-family="sans-serif" font-size="14" lengthAdjust="spacing" textLength="140" x="2461" y="811.0117">Networks Functional</text><text fill="#000000" font-family="sans-serif" font-size="14" lengthAdjust="spacing" textLength="142" x="2461" y="827.5">Enrichment Analysis.</text><!--MD5=[42ec44d13c9a463469ede49e778ecb9c]
entity UniProt--><path d="M1930.2144,1362.2039 C1934.8305,1354.7445 1939.2318,1356.4979 1943.9809,1362.0632 C1947.9628,1355.5466 1953.0727,1355.1568 1958.0585,1360.9116 C1961.3887,1354.6651 1965.4813,1354.8462 1970.2757,1359.2286 C1973.8332,1351.0944 1980.9276,1351.6935 1985.1453,1358.5747 C1989.0523,1351.8342 1993.4206,1351.702 1998.7212,1357.0037 C2003.5153,1350.0228 2009.4039,1349.5407 2014.1882,1357.0142 C2018.4385,1350.958 2023.3467,1351.8663 2026.9105,1357.7459 C2031.8882,1351.4001 2037.9371,1352.6927 2041.1744,1359.6167 C2045.6363,1353.5316 2051.5016,1352.3976 2055.776,1359.8193 C2059.86,1352.8976 2066.1367,1354.1357 2069.3648,1360.6829 C2073.5422,1353.6071 2078.4345,1352.9313 2083.1379,1360.177 C2091.8387,1353.4298 2101.7904,1355.7275 2103,1368 C2103.8602,1367.3222 2104.6353,1367.7131 2104.7597,1368.7536 C2110.267,1371.2907 2111.6422,1376.4047 2106.4738,1380.4997 C2114.6257,1382.1173 2115.4537,1387.7581 2111.3563,1393.8541 C2118.2059,1396.7953 2118.7454,1401.9387 2112.438,1406.0471 C2118.6369,1409.8962 2117.1604,1415.797 2111.3662,1418.6241 C2116.3873,1423.9125 2114.2969,1430.0583 2107.557,1431.9966 C2111.4382,1442.759 2108.2569,1449.19 2096,1448.9531 C2097.1277,1448.9197 2097.4844,1449.6348 2097.0186,1450.5918 C2093.2179,1457.071 2088.1118,1456.3673 2083.8039,1451.1658 C2079.0272,1457.9689 2073.5422,1456.1121 2070.4399,1449.4981 C2065.2756,1456.3985 2060.621,1456.3572 2055.2133,1449.7729 C2052.7319,1457.1386 2046.36,1457.3855 2042.1988,1451.4119 C2037.7565,1458.4516 2030.5967,1458.2414 2026.5775,1450.9506 C2023.2263,1456.8803 2018.4683,1458.4229 2013.4004,1452.9312 C2009.2011,1459.5469 2003.218,1458.3271 1999.5118,1452.3858 C1995.4532,1458.8751 1988.9042,1457.9386 1985.8011,1451.3816 C1982.1341,1458.9849 1975.8253,1459.5884 1971.5691,1451.9311 C1966.7863,1457.6255 1960.369,1456.9786 1957.1362,1450.1453 C1953.2364,1455.8551 1947.581,1455.98 1944.1939,1449.5967 C1932.6628,1457.2821 1924.9439,1457.2907 1921,1441.9531 C1921.5609,1442.0014 1921.8685,1442.4332 1921.4999,1442.9483 C1914.7373,1441.1201 1913.1672,1435.559 1918.1914,1430.5783 C1910.9897,1428.9457 1909.3128,1423.2402 1915.1579,1418.3667 C1909.4968,1416.9088 1906.7198,1411.7584 1911.5526,1406.9783 C1905.6787,1401.6154 1907.7928,1395.4409 1915.3401,1393.9924 C1910.7812,1388.9134 1912.1903,1384.6609 1918.5959,1382.7602 C1912.0586,1371.6409 1915.5744,1363.9241 1928,1361 C1929.1313,1360.3447 1930.2452,1360.7216 1930.2144,1362.2039 " fill="#FEFECE" filter="url(#f1n5vyi7h4d5wr)" style="stroke:#000000;stroke-width:1.5;"/><text fill="#000000" font-family="sans-serif" font-size="14" font-weight="bold" lengthAdjust="spacing" textLength="54" x="1928" y="1381.5352">UniProt</text><line style="stroke:#000000;stroke-width:1.0;" x1="1914" x2="2110" y1="1384.4883" y2="1384.4883"/><text fill="#000000" font-family="sans-serif" font-size="14" lengthAdjust="spacing" textLength="135" x="1928" y="1402.0234">Resource of protein</text><text fill="#000000" font-family="sans-serif" font-size="14" lengthAdjust="spacing" textLength="168" x="1928" y="1418.5117">sequence and functional</text><text fill="#000000" font-family="sans-serif" font-size="14" lengthAdjust="spacing" textLength="164" x="1928" y="1435">information (fasta files).</text><!--MD5=[e3f84bef187e41ca3c793d787e91367d]
link NFCore to GitHub--><path d="M2112.1,1256.64 C2131.31,1295.48 2158.93,1351.3 2174.06,1381.89 " fill="none" id="NFCore-GitHub" style="stroke:#A80036;stroke-width:1.0;"/><text fill="#000000" font-family="sans-serif" font-size="13" lengthAdjust="spacing" textLength="17" x="2141" y="1316.5684">git</text><!--MD5=[68e138f18aa526fdb3c5ddd143c9a172]
link Gitlab to Workflows--><path d="M2546,1256.64 C2546,1284.21 2546,1320.34 2546,1349.92 " fill="none" id="Gitlab-Workflows" style="stroke:#A80036;stroke-width:1.0;"/><!--MD5=[7a89d2d3d0e8275ec542eea5a5ba8439]
link PrideMockServer to PrideMockDB--><path d="M2292,874.28 C2292,903.2 2292,935.14 2292,959.83 " fill="none" id="PrideMockServer-PrideMockDB" style="stroke:#A80036;stroke-width:1.0;"/><!--MD5=[92b9d4de117f55383c9888bad1e10f66]
link PrideMockServer to PrideDB--><path d="M2193.32,874.28 C2155.95,902.98 2114.72,934.64 2082.66,959.25 " fill="none" id="PrideMockServer-PrideDB" style="stroke:#A80036;stroke-width:1.0;"/><text fill="#000000" font-family="sans-serif" font-size="13" lengthAdjust="spacing" textLength="26" x="2152" y="917.5684">http</text><!--MD5=[c53434691bf71c05c2f4b3b6a76e16d3]
link Docker to Nextflow--><path d="M1694.44,820.67 C1671.28,851.67 1628.54,908.89 1597.25,950.79 " fill="none" id="Docker-Nextflow" style="stroke:#A80036;stroke-width:1.0;"/><!--MD5=[29de2eedbfbb7c91eea213ed4a353901]
link ProteomicsServer to proteomics--><path d="M1622.06,407.11 C1643.62,430.53 1669.48,458.61 1692.63,483.76 " fill="none" id="ProteomicsServer-proteomics" style="stroke:#A80036;stroke-width:1.0;"/><!--MD5=[939e66daaa82c9f160fffaad7e2253b5]
link ProteomicsServer to ProteomicsDB--><path d="M1566.63,407.11 C1561.91,435.96 1556.03,471.89 1551.32,500.69 " fill="none" id="ProteomicsServer-ProteomicsDB" style="stroke:#A80036;stroke-width:1.0;"/><!--MD5=[caee208fb2bf6e8731ebbddb7f15d103]
link proteomics to E-Mail--><path d="M1856.83,555.46 C2068.7,561.38 2548.1,584.98 2678,678 C2710.14,701.01 2725.72,746.6 2732.49,774.03 " fill="none" id="proteomics-E-Mail" style="stroke:#A80036;stroke-width:1.0;"/><!--MD5=[d52ae0f3f20ad508e156675023404517]
link proteomics to Docker--><path d="M1742.74,621.19 C1733.44,672.59 1721.21,740.09 1715,774.4 " fill="none" id="proteomics-Docker" style="stroke:#A80036;stroke-width:1.0;"/><!--MD5=[7c8c60ca5f72cad588d2e183cfd9cab2]
link proteomics to PrideDB--><path d="M1815.99,621.02 C1824.43,631.44 1832.69,642.31 1840,653 C1911.36,757.43 1976.74,892.04 2007.88,959.49 " fill="none" id="proteomics-PrideDB" style="stroke:#A80036;stroke-width:1.0;"/><text fill="#000000" font-family="sans-serif" font-size="13" lengthAdjust="spacing" textLength="26" x="1967" y="802.5684">http</text><!--MD5=[031ab5641d0ff4850c3793aeee983358]
link proteomics to StringDB--><path d="M1856.58,554.74 C1993.3,560.2 2240.85,583.69 2427,678 C2459.14,694.29 2488.84,721.34 2511.32,745.49 " fill="none" id="proteomics-StringDB" style="stroke:#A80036;stroke-width:1.0;"/><text fill="#000000" font-family="sans-serif" font-size="13" lengthAdjust="spacing" textLength="26" x="2411" y="666.5684">http</text><!--MD5=[eaa4d45e8d6729a8b55432d90fe1fbba]
link proteomics to PrideMockServer--><path d="M1856.64,599.49 C1946.79,640.29 2078.53,699.9 2173.46,742.86 " fill="none" id="proteomics-PrideMockServer" style="stroke:#A80036;stroke-width:1.0;stroke-dasharray:7.0,7.0;"/><text fill="#000000" font-family="sans-serif" font-size="13" lengthAdjust="spacing" textLength="26" x="2008" y="666.5684">http</text><!--MD5=[a57c60366652cfd4389c7799639a1360]
link Nextflow to MSFragger--><path d="M1434.28,1043.2 C1380.69,1061.43 1317.9,1084.68 1263,1110 C1232.45,1124.09 1200.22,1141.66 1171.7,1158.24 " fill="none" id="Nextflow-to-MSFragger" style="stroke:#A80036;stroke-width:1.0;"/><polygon fill="#A80036" points="1167.15,1160.89,1176.9399,1159.8143,1171.4699,1158.3724,1172.9118,1152.9024,1167.15,1160.89" style="stroke:#A80036;stroke-width:1.0;"/><!--MD5=[1abbcee76410b4e884c5560c0b8ffd79]
link Nextflow to Philosopher--><path d="M1522.61,1055.15 C1502.54,1083.35 1477.44,1118.62 1456.14,1148.56 " fill="none" id="Nextflow-to-Philosopher" style="stroke:#A80036;stroke-width:1.0;"/><polygon fill="#A80036" points="1453.02,1152.94,1461.4911,1147.9161,1455.914,1148.8627,1454.9674,1143.2856,1453.02,1152.94" style="stroke:#A80036;stroke-width:1.0;"/><!--MD5=[c2ab7ecb32f00bf2ce23fadc6d0b95a8]
link Nextflow to R--><path d="M1597.85,1055.15 C1619.37,1083.47 1646.29,1118.91 1669.09,1148.93 " fill="none" id="Nextflow-to-R" style="stroke:#A80036;stroke-width:1.0;"/><polygon fill="#A80036" points="1672.14,1152.94,1669.8798,1143.354,1669.1149,1148.9589,1663.51,1148.1941,1672.14,1152.94" style="stroke:#A80036;stroke-width:1.0;"/><!--MD5=[615825cb9b214c9dc816950b2d3f2920]
link Nextflow to IonQuant--><path d="M1434.45,1010.31 C1211.45,1022.84 753.35,1054.56 604,1110 C578.27,1119.55 552.71,1134.5 530.22,1150.04 " fill="none" id="Nextflow-to-IonQuant" style="stroke:#A80036;stroke-width:1.0;"/><polygon fill="#A80036" points="526.05,1152.94,535.7209,1151.0761,530.1522,1150.0813,531.147,1144.5126,526.05,1152.94" style="stroke:#A80036;stroke-width:1.0;"/><!--MD5=[2ff64ebe63fcaecd80ac4456d7fe9299]
link Nextflow to ThermoRawFileParser--><path d="M1434.26,1008.54 C1300.04,1016.98 1082.39,1041.11 908,1110 C878.24,1121.76 848.38,1140.04 823.1,1157.9 " fill="none" id="Nextflow-to-ThermoRawFileParser" style="stroke:#A80036;stroke-width:1.0;"/><polygon fill="#A80036" points="818.76,1160.99,828.4112,1159.0266,822.8325,1158.0892,823.7699,1152.5106,818.76,1160.99" style="stroke:#A80036;stroke-width:1.0;"/><!--MD5=[45503c795c103256237fb29a18690daa]
link Philosopher to Freequant--><path d="M1343.53,1273.08 C1315.66,1297.48 1283.56,1325.58 1256.26,1349.49 " fill="none" id="Philosopher-to-Freequant" style="stroke:#A80036;stroke-width:1.0;"/><polygon fill="#A80036" points="1252.27,1352.98,1261.678,1350.0663,1256.0338,1349.6885,1256.4116,1344.0443,1252.27,1352.98" style="stroke:#A80036;stroke-width:1.0;"/><!--MD5=[ab4db4672ba41f8c932637068453eae6]
link Philosopher to Labelquant--><path d="M1428.41,1273.08 C1435.46,1296.98 1443.55,1324.43 1450.5,1348.01 " fill="none" id="Philosopher-to-Labelquant" style="stroke:#A80036;stroke-width:1.0;"/><polygon fill="#A80036" points="1451.96,1352.98,1453.2532,1343.2164,1450.5469,1348.1839,1445.5794,1345.4775,1451.96,1352.98" style="stroke:#A80036;stroke-width:1.0;"/><!--MD5=[0a4ce9b84ab1d5bcf0372033c1aa6d1c]
link Philosopher to PeptideProphet--><path d="M1279.97,1266.57 C1274.25,1268.76 1268.57,1270.91 1263,1273 C1166.39,1309.22 1139.48,1310.91 1044,1350 C1036.82,1352.94 1029.43,1356.09 1022.04,1359.35 " fill="none" id="Philosopher-to-PeptideProphet" style="stroke:#A80036;stroke-width:1.0;"/><polygon fill="#A80036" points="1017.44,1361.38,1027.2888,1361.4115,1022.0155,1359.3639,1024.0631,1354.0906,1017.44,1361.38" style="stroke:#A80036;stroke-width:1.0;"/><!--MD5=[f7af267f58bb1c9396ee7fea0c6f9ab9]
link Philosopher to ProteinProphet--><path d="M1502.1,1273.08 C1544.57,1300.61 1594.32,1332.87 1633.8,1358.48 " fill="none" id="Philosopher-to-ProteinProphet" style="stroke:#A80036;stroke-width:1.0;"/><polygon fill="#A80036" points="1638.08,1361.25,1632.712,1352.9926,1633.8871,1358.5261,1628.3537,1359.7012,1638.08,1361.25" style="stroke:#A80036;stroke-width:1.0;"/><!--MD5=[2c324b8f05c859b2a1e87708c1bf6e8c]
link Philosopher to UniProt--><path d="M1542.27,1267.1 C1548.24,1269.16 1554.17,1271.14 1560,1273 C1696.47,1316.58 1736.39,1306.86 1873,1350 C1885.96,1354.09 1899.45,1358.78 1912.71,1363.64 " fill="none" id="Philosopher-UniProt" style="stroke:#A80036;stroke-width:1.0;"/><!--MD5=[e5da596168f4dc097cabb7ab4a5dddcc]
link Nextflow to Gitlab--><path d="M1683.51,1030.22 C1746.95,1043.11 1825.41,1058.35 1896,1070 C2027.41,1091.7 2062.67,1082.55 2193,1110 C2286.17,1129.62 2390.68,1161.03 2461.65,1183.82 " fill="none" id="Nextflow-Gitlab" style="stroke:#A80036;stroke-width:1.0;"/><text fill="#000000" font-family="sans-serif" font-size="13" lengthAdjust="spacing" textLength="17" x="2150" y="1098.5684">git</text><!--MD5=[dbcd02fe588766d2a1e5f80362e8d24e]
link Nextflow to NFCore--><path d="M1683.57,1042.5 C1741.69,1061.36 1811.46,1085.31 1873,1110 C1917.89,1128.01 1966.75,1150.59 2006.82,1169.92 " fill="none" id="Nextflow-NFCore" style="stroke:#A80036;stroke-width:1.0;"/><text fill="#000000" font-family="sans-serif" font-size="13" lengthAdjust="spacing" textLength="26" x="1849" y="1098.5684">http</text><!--MD5=[2cc0a088133d0c2f32916e6b6da9131e]
link FrontendGUI to BackendGUI--><path d="M137.43,407.11 C136.55,435.85 135.45,471.61 134.57,500.35 " fill="none" id="FrontendGUI-BackendGUI" style="stroke:#A80036;stroke-width:1.0;"/><text fill="#000000" font-family="sans-serif" font-size="13" lengthAdjust="spacing" textLength="33" x="138" y="450.5684">HTTP</text><!--MD5=[b814f423e2b6191cfd810caabfe5ea4a]
link FrontendGUI to ProteomicsServer--><path d="M241.12,355 C503.51,355 1199.45,355 1467.57,355 " fill="none" id="FrontendGUI-ProteomicsServer" style="stroke:#A80036;stroke-width:1.0;"/><text fill="#000000" font-family="sans-serif" font-size="13" lengthAdjust="spacing" textLength="33" x="838" y="348.5684">HTTP</text><!--MD5=[199c32cff89f9b23e7a4efdb800a172e]
link BackendGUI to FrontendDB--><path d="M133,604.74 C133,646.23 133,704.39 133,745.75 " fill="none" id="BackendGUI-FrontendDB" style="stroke:#A80036;stroke-width:1.0;"/><!--MD5=[162f8ea341a366becfa069a7273cbf19]
link BiologistDev to Gitlab--><path d="M2584.7,395.71 C2590.94,400.98 2597.48,406.07 2604,410.5 C2721.92,490.54 2892,408.98 2892,551.5 C2892,551.5 2892,551.5 2892,1004 C2892,1125.78 2732.62,1178.07 2630.2,1199.1 " fill="none" id="BiologistDev-Gitlab" style="stroke:#A80036;stroke-width:1.0;"/><text fill="#000000" font-family="sans-serif" font-size="13" lengthAdjust="spacing" textLength="17" x="2893" y="802.5684">git</text><!--MD5=[a98e3746d404e2c10d763e54ac3490e3]
link BiologistDev to proteomics--><path d="M2499.89,366.93 C2377.38,397.29 2030.59,483.21 1856.84,526.27 " fill="none" id="BiologistDev-proteomics" style="stroke:#A80036;stroke-width:1.0;"/><text fill="#000000" font-family="sans-serif" font-size="13" lengthAdjust="spacing" textLength="15" x="2197" y="450.5684">cli</text><!--MD5=[64b4f55b2c04e4f3f3e7e50fbb3486a0]
link Biologist to FrontendGUI--><path d="M139,142.77 C139,186.04 139,255.35 139,302.68 " fill="none" id="Biologist-FrontendGUI" style="stroke:#A80036;stroke-width:1.0;"/><text fill="#000000" font-family="sans-serif" font-size="13" lengthAdjust="spacing" textLength="50" x="140" y="205.5684">browser</text><!--MD5=[a2e2e04b977d66d05497fac0c945b616]
link Internet to InternalServer--><!--MD5=[01e2cc915f90584f7a6f916b2d60c8dc]
link InternalServer to Person--><!--MD5=[1b1bc9abe427ed55968f8e795ac9ab30]
link Internet to comp--><!--MD5=[0a5b2aa7cee6dcd55316d7deb818f948]
link comp to db--><!--MD5=[a3f3413f100411319357787e1f190989]
@startuml Proteomics Services

' What stuff means

rectangle "Legend" {
    cloud Internet [
        Internet
        - - - -
        This software runs on the
        internet and is provided by
        a 3rd party. These services
        are not under our control.
    ]

    frame InternalServer [
        Internal Server
        - - - -
        Shows a server with all the
        running services.
    ]

    actor Person
    component comp [
        A single component that
        can be executed.
    ]

    database db [
        A Database to store
        information.
    ]
}


' Actors

Actor Biologist
Actor BiologistDev [
    Biologist Dev
]


' Workflows

rectangle Workflows [
    <b>Workflows
    ===
    Label Free
    - - - -
    Open Search
    - - - -
    TMT
]



' External Services

cloud Gitlab [
    <b>Gitlab
    - - -
    Contains all custom
    nextflow workflows.
]

cloud NFCore [
    <b>nf-core
    - - -
    Contains external
    nextflow workflows.
]

cloud GitHub

cloud PrideDB [
    <b>Pride Database
    - - - -
    User uploaded measurement
    data from experiments.
]

cloud StringDB [
    <b>StringDB
    - - - -
    Protein-Protein Interaction
    Networks Functional
    Enrichment Analysis.
]

cloud UniProt [
    <b>UniProt
    - - - -
    Resource of protein
    sequence and functional
    information (fasta files).
]

cloud "Notification Services" {
    [E-Mail]
}

' External interactions

NFCore - - GitHub : git
Gitlab - - Workflows


' Internal parts

frame "Storage server (optional)" {
    database PrideMockDB [
        <b>Pride mock DB
        - - - -
        Stores all the cached project
        information.
    ]

    component PrideMockServer [
        <b>Pride Mock Server
        - - - -
        Provides a mirror to the
        PrideDB. This internal
        mirror allows for caching
        often used projects and
        thus faster download speeds
        of these large projects.
    ]

    PrideMockServer - - PrideMockDB
    PrideMockServer - - PrideDB : http
}

frame "High Power Server" {
    component Nextflow [
        <b>Nextflow
        - - - -
        Data-driven computational
        pipelines. Orchestrates Docker
        containers.
    ]

    [Docker] - - Nextflow

    rectangle ProteomicsService {
        component proteomics [
            <b>Proteomics
            - - - -
            Coordinates the
            download and
            evaluation of one
            or more projects.
            Provides a CLI interface.
        ]

        component ProteomicsServer [
            <b>Proteomics Server
            - - - -
            Provides a HTTP interface
            and acccess control to
            the proteomics package.
        ]

        database ProteomicsDB [
            <b>Proteomics DB
            - - - -
            Access and current
            evaluation projects
            information.
        ]

        ' Internal
        ProteomicsServer - - proteomics
        ProteomicsServer - - ProteomicsDB

        ' External
        proteomics - - [E-Mail]
        proteomics - - [Docker]
        proteomics - - PrideDB : http
        proteomics - - StringDB : http
        proteomics .. PrideMockServer : http
    }

    rectangle "Nextflow Docker" {
        component MSFragger [
            <b>MSFragger
            - - - -
            MSFragger is an ultrafast database
            search tool for peptide identification
            in mass spectrometry-based proteomics.
        ]

        component Philosopher [
            <b>Philosopher
            - - - -
            Philosopher is fast, easy-to-use,
            scalable, and versatile data
            analysis software for mass
            spectrometry-based proteomics
        ]

        component R [
            <b>R/MSSTats
            - - - -
            Downstream statistical analysis
            for comparison of peptide/protein
            abundances for different identified
            cohorts.
        ]

        component IonQuant [
            <b>IonQuant
            - - - -
            A label free quantification tool.
            Enables label-free quantification
            with false discovery controlled
            match-between-runs.
        ]

        component ThermoRawFileParser [
            <b>ThermoRawFileParser
            - - - -
            takes a thermo RAW file as input
            and outputs a metadata file and
            the spectra in 3 possible formats.
        ]

        component Freequant [
            <b>Freequant
            - - - -
            Perform label-free quantification
            via precursor (MS1) abundances
            and spectral counting.
        ]

        component Labelquant [
            <b>Labelquant
            - - - -
            Protein quantification
            based on isobaric
            labeling (TMT or iTRAQ).
        ]

        component ProteinProphet [
            <b>ProteinProphet
            - - - -
            Statistical validation of
            protein identifications.
        ]

        component PeptideProphet [
            <b>PeptideProphet
            - - - -
            Statistical validation of
            peptide assignments.
        ]

        Nextflow - -> MSFragger
        Nextflow - -> Philosopher
        Nextflow - -> R
        Nextflow - -> IonQuant
        Nextflow - -> ThermoRawFileParser

        Philosopher - -> Freequant
        Philosopher - -> Labelquant
        Philosopher - -> PeptideProphet
        Philosopher - -> ProteinProphet

        ' External access
        Philosopher - - UniProt
    }

    Nextflow - - Gitlab : git
    Nextflow - - NFCore : http
}


frame "Frontend Server" {
    database FrontendDB [
        <b>Frontend DB
        - - - -
        Configuration information
        about the available backend
        evaluation servers.
    ]

    component FrontendGUI [
        <b>Frontend GUI
        - - - -
        A modern and easy to
        use browser GUI written
        in vue.js.
    ]

    component BackendGUI [
        <b>Backend GUI
        - - - -
        Allows for communication
        between the frontend DB
        and GUI.
    ]


    FrontendGUI - - BackendGUI : HTTP
    FrontendGUI - ProteomicsServer : HTTP
    BackendGUI - - FrontendDB
}


' Actor interactions
BiologistDev - - Gitlab : git
BiologistDev - - proteomics : cli

Biologist - - FrontendGUI : browser

@enduml

@startuml Proteomics Services


rectangle "Legend" {
    cloud Internet [
        Internet
        - - - -
        This software runs on the
        internet and is provided by
        a 3rd party. These services
        are not under our control.
    ]

    frame InternalServer [
        Internal Server
        - - - -
        Shows a server with all the
        running services.
    ]

    actor Person
    component comp [
        A single component that
        can be executed.
    ]

    database db [
        A Database to store
        information.
    ]
}



Actor Biologist
Actor BiologistDev [
    Biologist Dev
]



rectangle Workflows [
    <b>Workflows
    ===
    Label Free
    - - - -
    Open Search
    - - - -
    TMT
]




cloud Gitlab [
    <b>Gitlab
    - - -
    Contains all custom
    nextflow workflows.
]

cloud NFCore [
    <b>nf-core
    - - -
    Contains external
    nextflow workflows.
]

cloud GitHub

cloud PrideDB [
    <b>Pride Database
    - - - -
    User uploaded measurement
    data from experiments.
]

cloud StringDB [
    <b>StringDB
    - - - -
    Protein-Protein Interaction
    Networks Functional
    Enrichment Analysis.
]

cloud UniProt [
    <b>UniProt
    - - - -
    Resource of protein
    sequence and functional
    information (fasta files).
]

cloud "Notification Services" {
    [E-Mail]
}


NFCore - - GitHub : git
Gitlab - - Workflows



frame "Storage server (optional)" {
    database PrideMockDB [
        <b>Pride mock DB
        - - - -
        Stores all the cached project
        information.
    ]

    component PrideMockServer [
        <b>Pride Mock Server
        - - - -
        Provides a mirror to the
        PrideDB. This internal
        mirror allows for caching
        often used projects and
        thus faster download speeds
        of these large projects.
    ]

    PrideMockServer - - PrideMockDB
    PrideMockServer - - PrideDB : http
}

frame "High Power Server" {
    component Nextflow [
        <b>Nextflow
        - - - -
        Data-driven computational
        pipelines. Orchestrates Docker
        containers.
    ]

    [Docker] - - Nextflow

    rectangle ProteomicsService {
        component proteomics [
            <b>Proteomics
            - - - -
            Coordinates the
            download and
            evaluation of one
            or more projects.
            Provides a CLI interface.
        ]

        component ProteomicsServer [
            <b>Proteomics Server
            - - - -
            Provides a HTTP interface
            and acccess control to
            the proteomics package.
        ]

        database ProteomicsDB [
            <b>Proteomics DB
            - - - -
            Access and current
            evaluation projects
            information.
        ]

        ProteomicsServer - - proteomics
        ProteomicsServer - - ProteomicsDB

        proteomics - - [E-Mail]
        proteomics - - [Docker]
        proteomics - - PrideDB : http
        proteomics - - StringDB : http
        proteomics .. PrideMockServer : http
    }

    rectangle "Nextflow Docker" {
        component MSFragger [
            <b>MSFragger
            - - - -
            MSFragger is an ultrafast database
            search tool for peptide identification
            in mass spectrometry-based proteomics.
        ]

        component Philosopher [
            <b>Philosopher
            - - - -
            Philosopher is fast, easy-to-use,
            scalable, and versatile data
            analysis software for mass
            spectrometry-based proteomics
        ]

        component R [
            <b>R/MSSTats
            - - - -
            Downstream statistical analysis
            for comparison of peptide/protein
            abundances for different identified
            cohorts.
        ]

        component IonQuant [
            <b>IonQuant
            - - - -
            A label free quantification tool.
            Enables label-free quantification
            with false discovery controlled
            match-between-runs.
        ]

        component ThermoRawFileParser [
            <b>ThermoRawFileParser
            - - - -
            takes a thermo RAW file as input
            and outputs a metadata file and
            the spectra in 3 possible formats.
        ]

        component Freequant [
            <b>Freequant
            - - - -
            Perform label-free quantification
            via precursor (MS1) abundances
            and spectral counting.
        ]

        component Labelquant [
            <b>Labelquant
            - - - -
            Protein quantification
            based on isobaric
            labeling (TMT or iTRAQ).
        ]

        component ProteinProphet [
            <b>ProteinProphet
            - - - -
            Statistical validation of
            protein identifications.
        ]

        component PeptideProphet [
            <b>PeptideProphet
            - - - -
            Statistical validation of
            peptide assignments.
        ]

        Nextflow - -> MSFragger
        Nextflow - -> Philosopher
        Nextflow - -> R
        Nextflow - -> IonQuant
        Nextflow - -> ThermoRawFileParser

        Philosopher - -> Freequant
        Philosopher - -> Labelquant
        Philosopher - -> PeptideProphet
        Philosopher - -> ProteinProphet

        Philosopher - - UniProt
    }

    Nextflow - - Gitlab : git
    Nextflow - - NFCore : http
}


frame "Frontend Server" {
    database FrontendDB [
        <b>Frontend DB
        - - - -
        Configuration information
        about the available backend
        evaluation servers.
    ]

    component FrontendGUI [
        <b>Frontend GUI
        - - - -
        A modern and easy to
        use browser GUI written
        in vue.js.
    ]

    component BackendGUI [
        <b>Backend GUI
        - - - -
        Allows for communication
        between the frontend DB
        and GUI.
    ]


    FrontendGUI - - BackendGUI : HTTP
    FrontendGUI - ProteomicsServer : HTTP
    BackendGUI - - FrontendDB
}


BiologistDev - - Gitlab : git
BiologistDev - - proteomics : cli

Biologist - - FrontendGUI : browser

@enduml

PlantUML version 1.2021.16(Wed Dec 08 18:25:22 CET 2021)
(GPL source distribution)
Java Runtime: OpenJDK Runtime Environment
JVM: OpenJDK 64-Bit Server VM
Default Encoding: UTF-8
Language: en
Country: GB
--></g></svg>
